﻿{
    "_id": "course",
    "_type": "course",
    "title": "Создание увлекательных материалов с помощью Моментальных статей",
    "displayTitle": "Создание увлекательных материалов с помощью Моментальных статей",
    "body": "",
    "_buttons": {
        "_submit": {
            "buttonText": "Отправить",
            "ariaLabel": "Нажмите, чтобы отправить ответ."
        },
        "_reset": {
            "buttonText": "Сбросить",
            "ariaLabel": "Нажмите, чтобы сбросить вопрос."
        },
        "_showCorrectAnswer": {
            "buttonText": "Правильный ответ",
            "ariaLabel": "Нажмите, чтобы посмотреть правильный ответ."
        },
        "_hideCorrectAnswer": {
            "buttonText": "Мой ответ",
            "ariaLabel": "Нажмите здесь, чтобы посмотреть свой ответ."
        },
        "_showFeedback": {
            "buttonText": "Показать комментарий",
            "ariaLabel": "Нажмите здесь, чтобы еще раз посмотреть комментарий к вопросу."
        },
        "remainingAttemptsText": "осталось попыток",
        "remainingAttemptText": "последняя попытка",
        "disabledAriaLabel": "Эта кнопка сейчас недоступна."
    },
    "_globals": {
        "_components": {
            "_accordion": {
                "ariaRegion": "Этот компонент состоит из нескольких развертываемых панелей с текстом. Выберите названия элементов, чтобы отобразить или скрыть панели с материалами.",
                "instruction": ""
            },
            "_blank": {
                "ariaRegion": "",
                "instruction": ""
            },
            "_gmcq": {
                "ariaRegion": "Компонент является вопросом с несколькими вариантами ответа в графическом формате. Выбрав вариант, нажмите «Отправить».",
                "instruction": ""
            },
            "_graphic": {
                "ariaRegion": "",
                "instruction": ""
            },
            "_hotGraphic": {
                "ariaRegion": "Компонент ниже позволяет выбрать маркеры на изображении. Выбрав маркер, вы увидите всплывающее окно с изображением и текстом. Чтобы закрыть его, нажмите кнопку «Закрыть».",
                "instruction": ""
            },
            "_matching": {
                "ariaRegion": "Компонент «Вопрос» требует выбрать правильный ответ в раскрывающемся списке ниже. Выбрав ответы, нажмите «Отправить».",
                "instruction": ""
            },
            "_mcq": {
                "ariaRegion": "Компонент является вопросом с несколькими вариантами ответа. Выбрав вариант, нажмите «Отправить».",
                "instruction": ""
            },
            "_media": {
                "ariaRegion": "Мультимедийный компонент, который воспроизводит видео. Нажмите кнопку «Воспроизведение/пауза», чтобы просмотреть видео или прослушать аудио. Можно также выбрать ссылку ниже, чтобы отобразить начитанный текст.",
                "instruction": ""
            },
            "_narrative": {
                "ariaRegion": "Компонент отображает галерею изображений с текстом. Для перемещения по тексту воспользуйтесь стрелками вперед и назад.",
                "instruction": ""
            },
            "_slider": {
                "ariaRegion": "Компонент требует ответить на вопрос, выбрав подходящее значение. Сделав это, нажмите «Отправить» ниже.",
                "instruction": ""
            },
            "_text": {
                "ariaRegion": "",
                "instruction": ""
            },
            "_textInput": {
                "ariaRegion": "Для компонента «Вопрос» нужно ввести ответ в соответствующее поле. Ответив, нажмите «Отправить».",
                "instruction": ""
            }
        },
        "_extensions": {
            "_pageLevelProgress": {
                "pageLevelProgress": "Разделы страницы",
                "pageLevelProgressEnd": "Вы дошли до конца списка разделов страниц.",
                "pageLevelProgressIndicatorBar": "Ход выполнения. Нажмите здесь, чтобы увидеть, сколько вы прошли, и выбрать элемент, к которому вы хотите перейти. Вы завершили ",
                "optionalContent": "Дополнительный материал"
            }
        },
        "_menu": {
            "_boxmenu": {
                "ariaRegion": "Меню",
                "menuItem": "Пункт меню.",
                "menuEnd": "Вы дошли до конца меню."
            }
        },
        "_accessibility": {
            "_accessibilityToggleTextOn": "Включить доступ?",
            "_accessibilityToggleTextOff": "Отключить доступ?",
            "_accessibilityInstructions": {
                "touch": "Инструкции по использованию. Чтобы перейти на следующую страницу, проведите пальцем влево. Чтобы вернуться на предыдущую страницу, проведите пальцем вправо. Дважды коснитесь элемента, чтобы выбрать его. Чтобы перейти в верхнюю часть страницы, проведите двумя пальцами вверх.",
                "notouch": "Инструкции по использованию. Чтобы перейти на следующую страницу, нажмите клавишу Tab. Чтобы вернуться на предыдущую страницу, нажмите клавиши Shift+Tab. Чтобы выбрать элемент, нажмите Enter. Чтобы перейти в верхнюю часть страницы, нажмите Esc.",
                "ipad": "Инструкции для устройств с сенсорными экранами. Чтобы перейти на следующую страницу, проведите пальцем влево. Чтобы вернуться на предыдущую страницу, проведите пальцем вправо. Дважды коснитесь элемента, чтобы выбрать его. Чтобы перейти в верхнюю часть страницы, проведите двумя пальцами вверх. Инструкции для устройств с клавиатурой. Чтобы перейти на следующую страницу, нажмите клавишу со стрелкой влево. Чтобы вернуться на предыдущую страницу, нажмите клавишу со стрелкой вправо. Чтобы выбрать элемент, одновременно нажмите клавиши со стрелками вверх и вниз."
            },
            "_ariaLabels": {
                "navigation": "Панель навигации",
                "menuLoaded": "Меню загружено.",
                "menu": "Меню",
                "page": "Страница",
                "pageLoaded": "Страница загружена.",
                "pageEnd": "Вы дошли до конца страницы.",
                "previous": "Назад",
                "navigationBack": "Возврат назад",
                "navigationDrawer": "Открыть ресурсы курса.",
                "close": "Закрыть",
                "closeDrawer": "Закрыть панель",
                "closeResources": "Закрыть ресурсы",
                "resourcesEnd": "Вы дошли до конца списка ресурсов.",
                "drawerBack": "Вернуться в панель",
                "drawer": "Верхняя часть боковой панели",
                "closePopup": "Закрыть всплывающее окно",
                "next": "Далее",
                "done": "Готово",
                "complete": "Завершено",
                "incomplete": "Не завершено",
                "incorrect": "Неправильно",
                "correct": "Правильно",
                "locked": "Заблокировано",
                "accessibilityToggleButton": "Эта кнопка поможет настроить доступ к элементу.",
                "feedbackPopUp": "Всплывающее окно открыто.",
                "menuBack": "Назад в меню",
                "visited": "Просмотрено"
            }
        }
    },
    "_latestTrackingId": 58,
    "_pageLevelProgress": {
        "_isEnabled": true,
        "_altText": "компонентов на этой странице пройдено."
    },
    "_bookmarking": {
        "_isEnabled": true,
        "_level": "component",
        "title": "Закладки",
        "body": "Хотите продолжить с того места, где вы остановились в прошлый раз?",
        "_buttons": {
            "yes": "Да",
            "no": "Нет"
        }
    },
    "_courseCompleted": {
        "title": "Поздравляем!",
        "body": "Вы прошли этот курс.",
        "exitButton": "Выйти из курса"
    },
    "_analytics": {
        "_isEnabled": true
    }
}